StartP: [25.0]
StartP: [25.0, 25.0]
300
Parameters: {d0=0.02, dt=0.01, D=7.0, lambda=0.01, sm=50.0, b0=0.1, alpha=1.1, Dk=0.5, beta=0.5, mutate=1000.0}
Interaction Matrix
  1.00  0.80
  1.20  1.00

Done
