>>>>>>>>>>>>>>>>>>>> LAND GENERATED
>>>>>>>>>>>>>>>>>>>> NEIGHBOURS FOUND
>>>>>>>>>>>>>>>>>>>> ISLANDS FOUND
>>>>>>>>>>>>>>>>>>>> ADDED CARRYING CAPACITY
>>>>>>>>>>>>>>>>>>>> PEOPLE ADDED in 1 CIVS
Parameters: {d0=0.02, dt=0.01, D=7.0, lambda=0.01, sm=50.0, b0=0.1, alpha=1.1, Dk=0.5, beta=0.5, mutate=1000.0}
Interaction Matrix
  1.00


Square. Seed=123 Length=100.0 CivNum=1 Timesteps: 30000

New Civilisation added Persians1		R:0.7708 I:0.1603 A:0.0689 NOT DEAD
Civilisation Dead: Persians1
New Civilisation added Greeks2		R:0.3899 I:0.2239 A:0.3862 NOT DEAD
Civilisation Dead: Greeks2
New Civilisation added Trojans3		R:0.4063 I:0.2794 A:0.3143 NOT DEAD
New Civilisation added Britons4		R:0.4738 I:0.4930 A:0.0332 NOT DEAD
New Civilisation added Britons5		R:0.4424 I:0.2532 A:0.3044 NOT DEAD
Civilisation Dead: Britons5
Civilisation Dead: Britons4
Civilisation Dead: Trojans3
New Civilisation added Barbarians6		R:0.5023 I:0.4049 A:0.0928 NOT DEAD
Civilisation Dead: Barbarians6
New Civilisation added Persians7		R:0.3737 I:0.3621 A:0.2641 NOT DEAD
New Civilisation added Barbarians8		R:0.1981 I:0.2658 A:0.5361 NOT DEAD
Civilisation Dead: Persians7
Civilisation Dead: Barbarians8
New Civilisation added Mayans9		R:0.1782 I:0.3316 A:0.4902 NOT DEAD
Civilisation Dead: Mayans9
New Civilisation added Greeks10		R:0.2767 I:0.3572 A:0.3661 NOT DEAD
New Civilisation added Persians11		R:0.5934 I:0.3399 A:0.0668 NOT DEAD
New Civilisation added Persians12		R:0.1466 I:0.4081 A:0.4453 NOT DEAD
Civilisation Dead: Persians11
Civilisation Dead: Greeks10
Civilisation Dead: Persians12
New Civilisation added Barbarians13		R:0.3628 I:0.3408 A:0.2964 NOT DEAD
New Civilisation added Romans14		R:0.2805 I:0.3909 A:0.3286 NOT DEAD
New Civilisation added Greeks15		R:0.3212 I:0.2368 A:0.4419 NOT DEAD
Civilisation Dead: Barbarians13
Civilisation Dead: Greeks15
Civilisation Dead: Romans14
New Civilisation added Mayans16		R:0.5454 I:0.4487 A:0.0059 NOT DEAD
Civilisation Dead: Mayans16
New Civilisation added Greeks17		R:0.3551 I:0.0632 A:0.5817 NOT DEAD
Civilisation Dead: Greeks17
New Civilisation added Barbarians18		R:0.1115 I:0.4381 A:0.4504 NOT DEAD
Civilisation Dead: Barbarians18
New Civilisation added Chinese19		R:0.1126 I:0.7639 A:0.1235 NOT DEAD
Civilisation Dead: Chinese19
New Civilisation added Mayans20		R:0.4378 I:0.4239 A:0.1383 NOT DEAD
Civilisation Dead: Mayans20
New Civilisation added Persians21		R:0.0959 I:0.4682 A:0.4358 NOT DEAD
Civilisation Dead: Persians21
New Civilisation added Persians22		R:0.1316 I:0.3053 A:0.5631 NOT DEAD
Civilisation Dead: Persians22
New Civilisation added Vikings23		R:0.3161 I:0.2236 A:0.4603 NOT DEAD
Civilisation Dead: Vikings23
New Civilisation added Persians24		R:0.0553 I:0.5300 A:0.4147 NOT DEAD
Civilisation Dead: Persians24
New Civilisation added Trojans25		R:0.2743 I:0.3588 A:0.3670 NOT DEAD
